{
  "messageVersion": "1.0",  "invocationSource": "FulfillmentCodeHook",
  "sessionAttributes": {},
  "bot": {
    "name": "",
    "alias": "$LATEST",
    "version": "$LATEST"
  },
  "outputDialogMode": "Text",
  "currentIntent": {
    "name": "CreardorEmpleados",
    "slots": {
      "cedula": "8-822-1702",
      "nombre": "Michaell",
      "apellido": "marciaga",
      "fecha_nacimiento": "1990-05-20",
      "departamento": "Soporte tecnico",
      "puesto": "Tecnico",
      "salario": 1500.00
    },
    "confirmationStatus": "None"
  }
}